Summary of R software for Symbolic Data Analysis
…
RSDA: the symbolic data table

Each row is a state (46 states are recorded)

result  <- classic.to.sym(x = USCrime,
                          concept = state, 
                          variables= c(NumInShelters,
                                       NumImmig,
                                       ViolentCrimesPerPop),
                          ViolentCrimesPerPop_hist = sym.histogram(ViolentCrimesPerPop,                                                                 breaks = pretty(USCrime$ViolentCrimesPerPop,5)))
result %>% print(n=6)

# A tibble: 46 × 4
  ViolentCrimesPerPop_hist NumInShelters      NumImmig ViolentCrimesPerPop
                <symblc_h>    <symblc_n>    <symblc_n>          <symblc_n>
1                   <hist> [0.00 : 0.32] [0.00 : 0.04]       [0.01 : 1.00]
2                   <hist> [0.01 : 0.18] [0.01 : 0.09]       [0.05 : 0.36]
3                   <hist> [0.00 : 1.00] [0.00 : 0.57]       [0.05 : 0.57]
4                   <hist> [0.00 : 0.08] [0.00 : 0.02]       [0.02 : 1.00]
5                   <hist> [0.00 : 1.00] [0.00 : 1.00]       [0.01 : 1.00]
6                   <hist> [0.00 : 0.68] [0.00 : 0.23]       [0.07 : 0.75]
# ℹ 40 more rows
…
result$ViolentCrimesPerPop_hist[[1]]

$breaks
[1] 0.0 0.2 0.4 0.6 0.8 1.0

$props
[1] 0.37209302 0.20930233 0.18604651 0.04651163 0.04651163

Example

A dataset with 130 rows and 5 variables about some suspects.

The symbolic data table

# A tibble: 100 × 4
               age               hair              eyes               region
        <symblc_n>         <symblc_s>        <symblc_s>           <symblc_s>
 1 [22.00 : 42.00]            {h_red} {e_brown,e_black}              {Bronx}
 2 [20.00 : 57.00] {h_black,h_blonde} {e_green,e_black}    {Bronx,Manhattan}
 3 [29.00 : 64.00]  {h_brown,h_white} {e_brown,e_green}    {Brooklyn,Queens}
 4 [14.00 : 55.00]         {h_blonde} {e_brown,e_black}    {Bronx,Manhattan}
 5  [4.00 : 47.00]    {h_brown,h_red}         {e_green}    {Manhattan,Bronx}
 6 [32.00 : 61.00] {h_blonde,h_white}  {e_green,e_blue}       {Bronx,Queens}
 7 [49.00 : 61.00]    {h_white,h_red}  {e_black,e_blue}       {Queens,Bronx}
 8  [8.00 : 32.00] {h_blonde,h_white} {e_brown,e_black} {Manhattan,Brooklyn}
 9 [39.00 : 67.00] {h_blonde,h_white} {e_black,e_brown}     {Brooklyn,Bronx}
10 [50.00 : 68.00]  {h_brown,h_black} {e_brown,e_green}    {Manhattan,Bronx}
# ℹ 90 more rows
…
Linear regression for intervals

The data is an object of class symbolic_tbl with 67 rows and 9 columns.

The data for this example come from a study by Stamey et al. (1989) that examined the correlation between the level of prostate specific antigen (PSA) and a number of clinical measures, in 97 men who were about to receive a radical prostatectomy. The goal is to predict the log of PSA (lpsa) from a number of measurements including log cancer volume (lcavol), log prostate weight lweight, age, log of benign prostatic hyperplasia amount lbph, seminal vesicle invasion svi, log of capsular penetration lcp, Gleason score gleason, and percent of Gleason scores 4 or 5 pgg45.

# A tibble: 67 × 9
            lcavol       lweight             age            lbph           svi
        <symblc_n>    <symblc_n>      <symblc_n>      <symblc_n>    <symblc_n>
 1 [-0.58 : -0.58] [2.77 : 2.78] [50.00 : 50.01] [-1.39 : -1.37] [0.00 : 0.02]
 2 [-1.00 : -0.99] [3.31 : 3.32] [58.00 : 58.00] [-1.39 : -1.32] [0.00 : 0.02]
 3 [-0.52 : -0.48] [2.69 : 2.70] [74.00 : 74.00] [-1.39 : -1.33] [0.00 : 0.01]
 4 [-1.21 : -1.17] [3.28 : 3.29] [58.00 : 58.00] [-1.39 : -1.34] [0.00 : 0.03]
 5   [0.73 : 0.78] [3.43 : 3.44] [61.99 : 62.01] [-1.39 : -1.33] [0.00 : 0.03]
 6 [-1.05 : -1.01] [3.23 : 3.23] [50.00 : 50.01] [-1.39 : -1.39] [0.00 : 0.03]
 7   [0.69 : 0.72] [3.53 : 3.55] [58.00 : 58.01]   [1.52 : 1.54] [0.00 : 0.02]
 8   [0.24 : 0.28] [3.60 : 3.61] [64.99 : 65.00] [-1.39 : -1.35] [0.00 : 0.03]
 9 [-1.35 : -1.30] [3.59 : 3.60] [62.99 : 63.00]   [1.24 : 1.29] [0.00 : 0.03]
10   [1.59 : 1.62] [3.02 : 3.02] [63.00 : 63.00] [-1.39 : -1.38] [0.00 : 0.02]
# ℹ 57 more rows
# ℹ 4 more variables: lcp <symblc_n>, gleason <symblc_n>, pgg45 <symblc_n>,
#   lpsa <symblc_n>
…
